/Users/sandeeprai/Documents/Programming/JavaPrograms/UtilitiesWebApp/src/main/java/hello/storage/StorageService.java
/Users/sandeeprai/Documents/Programming/JavaPrograms/UtilitiesWebApp/src/main/java/hello/FileUploadController.java
/Users/sandeeprai/Documents/Programming/JavaPrograms/UtilitiesWebApp/src/main/java/hello/storage/StorageProperties.java
/Users/sandeeprai/Documents/Programming/JavaPrograms/UtilitiesWebApp/src/main/java/hello/storage/StorageException.java
/Users/sandeeprai/Documents/Programming/JavaPrograms/UtilitiesWebApp/src/main/java/hello/Application.java
/Users/sandeeprai/Documents/Programming/JavaPrograms/UtilitiesWebApp/src/main/java/hello/storage/StorageFileNotFoundException.java
/Users/sandeeprai/Documents/Programming/JavaPrograms/UtilitiesWebApp/src/main/java/hello/storage/FileSystemStorageService.java
